%YAML 1.1
%TAG !u! tag:unity3d.com,2011:
--- !u!1045 &1
EditorBuildSettings:
  m_ObjectHideFlags: 0
  serializedVersion: 2
  m_Scenes:
  - enabled: 1
    path: Assets/Scenes/MainMenu.unity
    guid: 60c53e0491c81114ba9895eef69d9556
  - enabled: 1
    path: Assets/Scenes/Intro.unity
    guid: 5ad9afb6242f1254ca5663155d90cca0
  - enabled: 1
    path: Assets/Scenes/Level_01.unity
    guid: 639d7eca53084404f99ae66e2f87dca4
  - enabled: 1
    path: Assets/Scenes/Level_02.unity
    guid: cd546a1c69270c544b1ff9778c594120
  - enabled: 1
    path: Assets/Scenes/Level_03.unity
    guid: 93151fc680e6df14d883d3744a5547ae
  - enabled: 1
    path: Assets/Scenes/Outro.unity
    guid: e40dca26927b0fa44b262286f5e9942c
  - enabled: 0
    path: 
    guid: 00000000000000000000000000000000
  - enabled: 0
    path: Assets/Scenes/TestLevel.unity
    guid: 04f22e384ed646a45818f0f0f08b1386
  m_configObjects: {}
