%YAML 1.1
%TAG !u! tag:unity3d.com,2011:
--- !u!114 &11400000
MonoBehaviour:
  m_ObjectHideFlags: 0
  m_CorrespondingSourceObject: {fileID: 0}
  m_PrefabInstance: {fileID: 0}
  m_PrefabAsset: {fileID: 0}
  m_GameObject: {fileID: 0}
  m_Enabled: 1
  m_EditorHideFlags: 0
  m_Script: {fileID: 11500000, guid: 54d21f6ece3b46479f0c328f8c6007e0, type: 3}
  m_Name: MenuGradient
  m_EditorClassIdentifier: 
  colorMode: 3
  topLeft: {r: 0.21568629, g: 0.40000004, b: 0.5803922, a: 1}
  topRight: {r: 0.21568629, g: 0.40000004, b: 0.5803922, a: 1}
  bottomLeft: {r: 0.2901961, g: 0.5372549, b: 0.654902, a: 1}
  bottomRight: {r: 0.21568629, g: 0.40000004, b: 0.6117647, a: 1}
